blazers3 , 4213
tops3 , 31604
coverups3 , 13
tees3 , 22698
midi skirts3 , 362
sweatshirts and hoodies3 , 2339
coats and jackets3 , 8272
pants3 , 2343
thermals3 , 95
sweaters3 , 16074
denim skirts3 , 232
leggings3 , 3262
leather skirts3 , 132
shorts3 , 12598
tuxedos and evening suits3 , 178
three-fourths3 , 899
a-line skirts3 , 476
overalls3 , 272
shirts3 , 1237
night dresses3 , 37
pencil skirts3 , 1004
kaftans3 , 129
jumpsuits3 , 3112
bottomwear3 , 2227
sarongs3 , 23
maxi skirts3 , 819
mini skirts3 , 1556
night robes and gowns3 , 107
jeans3 , 4021
pleated skirts3 , 156
halter3 , 1493
swimming shorts3 , 214
rompers3 , 3642
